<svg width="22" height="22" viewBox="0 0 22 22" fill="none" xmlns="http://www.w3.org/2000/svg">
<path d="M21.6065 21.6066L0.393311 0.393433" stroke="#E8DECD"/>
<path d="M0.393242 21.6066L21.6064 0.393433" stroke="#E8DECD"/>
</svg>
