<svg width="21" height="21" viewBox="0 0 21 21" fill="none" xmlns="http://www.w3.org/2000/svg">
<path d="M1.03003 8.16299C1.03003 4.58031 1.03003 2.78898 2.14302 1.67598C3.25602 0.562988 5.04735 0.562988 8.63003 0.562988H12.43C16.0127 0.562988 17.804 0.562988 18.917 1.67598C20.03 2.78898 20.03 4.58031 20.03 8.16299V11.963C20.03 15.5457 20.03 17.337 18.917 18.45C17.804 19.563 16.0127 19.563 12.43 19.563H8.63003C5.04735 19.563 3.25602 19.563 2.14302 18.45C1.03003 17.337 1.03003 15.5457 1.03003 11.963V8.16299Z" stroke="#333333" stroke-linejoin="bevel"/>
<circle cx="16.0717" cy="4.52116" r="0.791667" fill="#333333"/>
<circle cx="10.53" cy="10.063" r="4.75" stroke="#333333" stroke-linejoin="bevel"/>
</svg>
