<svg width="22" height="22" viewBox="0 0 22 22" fill="none" xmlns="http://www.w3.org/2000/svg">
<path d="M14.1213 12.3934C14.3723 12.4919 15.715 13.2033 15.9892 13.3516C16.2609 13.4986 16.4449 13.5734 16.5131 13.6968C16.5813 13.8202 16.5813 14.4095 16.3535 15.0973C16.1256 15.7851 15.0339 16.4125 14.5088 16.4965C14.0372 16.5713 13.4414 16.6041 12.7871 16.3797C12.3911 16.2432 11.8818 16.062 11.2287 15.7588C8.48726 14.483 6.69616 11.5101 6.55969 11.3132L6.55612 11.3081C6.40705 11.0931 5.4436 9.7038 5.4436 8.26675C5.4436 6.81769 6.14908 6.10628 6.40008 5.81096C6.49167 5.69885 6.60378 5.60834 6.72937 5.5451C6.85496 5.48185 6.99133 5.44725 7.12992 5.44344C7.30421 5.44277 7.47849 5.44627 7.65263 5.45394C7.82078 5.46182 8.04619 5.38569 8.26672 5.95665C8.49457 6.54599 9.04165 7.99505 9.10988 8.14337C9.17933 8.29038 9.22442 8.46232 9.13303 8.65921C9.04165 8.85609 8.99657 8.97816 8.8601 9.1501C8.72364 9.32205 8.57377 9.53468 8.45071 9.66594C8.31302 9.81295 8.17047 9.97176 8.33008 10.2671C8.4897 10.5624 9.03799 11.5258 9.85069 12.3068C10.8949 13.3096 11.7758 13.6207 12.0488 13.7677C12.3217 13.9147 12.4813 13.8911 12.6409 13.6942C12.8005 13.4973 13.3245 12.8345 13.5072 12.5404C13.69 12.2464 13.8715 12.295 14.1213 12.3934Z" fill="#333333"/>
<path d="M14.8775 1.75563C16.0884 2.25773 17.1877 2.99512 18.1116 3.92509C19.04 4.8498 19.7759 5.94934 20.2768 7.16017C20.7778 8.371 21.0337 9.66911 21.03 10.9795C21.0277 16.4785 16.5529 20.9522 11.0572 20.9522H11.0528C9.3877 20.9515 7.7493 20.5341 6.28689 19.738L1 21.1255L2.41421 15.9586C1.54213 14.4455 1.08332 12.7303 1.08332 10.9728C1.08554 5.47372 5.56034 1.00003 11.0572 1.00003C12.3681 0.9967 13.6666 1.25352 14.8775 1.75563Z" stroke="#333333" stroke-linejoin="bevel"/>
</svg>
