<svg width="240" height="240" viewBox="0 0 240 240" fill="none" xmlns="http://www.w3.org/2000/svg">
<path fill-rule="evenodd" clip-rule="evenodd" d="M0 120C0 53.701 53.701 0 120 0C186.299 0 240.107 53.701 240 120C240 186.299 186.299 240 120 240C53.701 240 0 186.299 0 120ZM55.7295 125.658C55.7295 155.551 70.3558 181.708 92.0284 195.907C82.2064 183.736 76.8683 169.537 76.3345 153.309V125.765C76.975 107.082 83.8078 91.1743 96.8327 77.9359C109.964 64.6975 126.299 57.8647 146.05 57.4377C157.9 57.6512 168.576 60.3202 178.078 65.2313C165.053 52.2064 147.865 44.1992 128.968 44.1992C88.612 44.1992 55.7295 80.8184 55.7295 125.658ZM146.37 182.028H179.893C185.979 176.904 185.338 170.178 182.669 166.761C182.349 166.548 182.028 166.228 181.708 165.907C177.971 162.171 176.05 157.473 176.05 151.922V127.153C176.05 119.039 173.06 111.993 167.188 106.014C161.423 100.036 154.377 97.0462 146.156 97.0462C137.722 97.0462 130.676 100.036 124.804 106.014C118.932 111.886 115.943 118.932 115.943 127.153V151.922C115.943 160.142 118.932 167.188 124.804 173.167C130.676 179.039 137.829 182.028 146.156 182.028H146.37ZM131.85 138.149C135.587 134.199 140.285 132.277 145.836 132.277C151.281 132.277 155.979 134.199 159.822 138.149C163.772 142.206 165.694 146.797 165.694 152.242C165.694 157.793 163.772 162.491 159.822 166.228C155.979 169.964 151.281 171.886 145.836 171.886C140.285 171.886 135.587 170.071 131.85 166.228C128.114 162.491 126.192 157.793 126.192 152.242C126.192 146.797 128.007 142.1 131.85 138.149Z" fill="#2B2B2B"/>
</svg>
