<svg width="120" height="89" viewBox="0 0 120 89" fill="none" xmlns="http://www.w3.org/2000/svg">
<path d="M56.1085 26.437V36.9674" stroke="#6B8857" stroke-width="2" stroke-miterlimit="10" stroke-linejoin="round"/>
<path d="M61.3739 31.7021H50.8435" stroke="#6B8857" stroke-width="2" stroke-miterlimit="10" stroke-linejoin="round"/>
<path d="M82.8434 50.7939L75.396 58.2413" stroke="#6B8857" stroke-width="2" stroke-miterlimit="10" stroke-linejoin="round"/>
<path d="M59.8139 50.7939L52.3665 58.2413" stroke="#6B8857" stroke-width="2" stroke-miterlimit="10" stroke-linejoin="round"/>
<path d="M59.8139 58.2413L52.3665 50.7939" stroke="#6B8857" stroke-width="2" stroke-miterlimit="10" stroke-linejoin="round"/>
<path d="M84.394 31.7207H73.8636" stroke="#6B8857" stroke-width="2" stroke-miterlimit="10" stroke-linejoin="round"/>
<path d="M90.5043 43.1147H44.7705" stroke="#6B8857" stroke-width="2" stroke-miterlimit="10" stroke-linejoin="round"/>
<path d="M67.6328 20.2339V65.9584" stroke="#6B8857" stroke-width="2" stroke-miterlimit="10" stroke-linejoin="round"/>
<path d="M44.7705 24.9043C44.7705 22.3506 46.8599 20.2612 49.4135 20.2612H85.8613C88.4149 20.2612 90.5043 22.3506 90.5043 24.9043V61.352C90.5043 63.9056 88.4149 65.995 85.8613 65.995H49.4135C46.8599 65.995 44.7705 63.9056 44.7705 61.352V24.9043Z" stroke="#6B8857" stroke-width="2" stroke-miterlimit="10" stroke-linejoin="round"/>
<path d="M7.08778 87.624C3.7395 87.624 1 84.8845 1 81.5362V7.7118C1 4.36352 3.7395 1.62402 7.08778 1.62402H112.569C115.917 1.62402 118.656 4.36352 118.656 7.7118V80.6605" stroke="#6B8857" stroke-width="2" stroke-miterlimit="10" stroke-linejoin="round"/>
<path d="M24.8235 1.68408V87.542" stroke="#6B8857" stroke-width="2" stroke-miterlimit="10" stroke-linejoin="round"/>
<path d="M13.2974 40.1196V49.1092" stroke="#6B8857" stroke-width="2" stroke-miterlimit="10" stroke-linecap="round" stroke-linejoin="round"/>
</svg>
