<svg width="137" height="113" viewBox="0 0 137 113" fill="none" xmlns="http://www.w3.org/2000/svg">
<path d="M44.2454 43.2877L71.7023 19.3394L87.9398 33.4146" stroke="#6B8857" stroke-width="2" stroke-miterlimit="10" stroke-linecap="round" stroke-linejoin="round"/>
<path d="M84.207 66.0536H76.9246V53.2839H66.6435V66.0536H52.0991V36.6792" stroke="#6B8857" stroke-width="2" stroke-miterlimit="10" stroke-linejoin="round"/>
<path d="M95.3946 111.52L71.6007 88.0626C69.2344 85.6759 69.2548 81.7797 71.6414 79.4135L72.3146 78.7403C74.7012 76.374 78.5975 76.3944 80.9638 78.7811L92.1423 89.9393V75.3541V45.2657C92.1423 41.8999 94.8962 39.146 98.262 39.146H98.772C102.138 39.146 104.892 41.8999 104.892 45.2657V68.2553L128.35 72.131C128.35 72.131 136 73.661 136 83.6972L133.891 111.52" stroke="#6B8857" stroke-width="2" stroke-miterlimit="10" stroke-linecap="round" stroke-linejoin="round"/>
<path d="M62.7271 87.8998H7.11968C3.75385 87.8998 1 85.146 1 81.7801V7.56889C1 4.20307 3.75385 1.44922 7.11968 1.44922H113.153C116.519 1.44922 119.273 4.20307 119.273 7.56889V63.0131" stroke="#6B8857" stroke-width="2" stroke-miterlimit="10" stroke-linejoin="round"/>
<path d="M24.9485 1.51025V87.8181" stroke="#6B8857" stroke-width="2" stroke-miterlimit="10" stroke-linejoin="round"/>
<path d="M13.3618 40.147V49.1837" stroke="#6B8857" stroke-width="2" stroke-miterlimit="10" stroke-linecap="round" stroke-linejoin="round"/>
</svg>
